hw-03_part1
…
# drop columns that appear to be all na
bird_df <- select(bird_df, -c("numfeeders_hanging", "numfeeders_water", "numfeeders_thistle"))

# remove other rows with na values
bird_df <- na.omit(bird_df)

# display as tibble
library(tidyverse)
as_tibble(bird_df)

# A tibble: 61,113 × 79
   loc_id  proj_period_id latitude longitude subnational1_code entry_technique
   <chr>   <chr>             <dbl>     <dbl> <chr>             <chr>          
 1 L100032 PFW_2021           45.1     -93.1 US-MN             PointMaker1.0_2
 2 L100032 PFW_2021           45.1     -93.1 US-MN             PointMaker1.0_2
 3 L100032 PFW_2021           45.1     -93.1 US-MN             PointMaker1.0_2
 4 L100032 PFW_2021           45.1     -93.1 US-MN             PointMaker1.0_2
 5 L100032 PFW_2021           45.1     -93.1 US-MN             PointMaker1.0_2
 6 L100032 PFW_2021           45.1     -93.1 US-MN             PointMaker1.0_2
 7 L100032 PFW_2021           45.1     -93.1 US-MN             PointMaker1.0_2
 8 L100032 PFW_2021           45.1     -93.1 US-MN             PointMaker1.0_2
 9 L100057 PFW_2021           41.9     -71.0 US-MA             PointMaker1.0_2
10 L100057 PFW_2021           41.9     -71.0 US-MA             PointMaker1.0_2
# ℹ 61,103 more rows
# ℹ 73 more variables: sub_id <chr>, obs_id <chr>, Month <int>, Day <int>,
#   Year <int>, species_code <chr>, how_many <int>, valid <int>,
#   reviewed <int>, day1_am <int>, day1_pm <int>, day2_am <int>, day2_pm <int>,
#   effort_hrs_atleast <dbl>, snow_dep_atleast <dbl>, Data_Entry_Method <chr>,
#   yard_type_pavement <int>, yard_type_garden <int>, yard_type_landsca <int>,
#   yard_type_woods <int>, yard_type_desert <int>, hab_dcid_woods <int>, …
…
Note: Some splits use multiple values. Building the tree will become extremely slow if a factor has many levels (different values) since the tree has to check all possible splits into two subsets. This situation should be avoided.

Convert type into a set of 0-1 dummy variables using class2ind. See also ? dummyVars in package caret.

bird_train_dummy <- as_tibble(class2ind(bird_train$species)) |> 
  mutate(across(everything(), as.factor)) |>
  add_column(hab_park = bird_train$hab_park)
bird_train_dummy

# A tibble: 202 × 6
   amegfi bkcchi blujay daejun tuftit hab_park
   <fct>  <fct>  <fct>  <fct>  <fct>  <fct>   
 1 0      0      0      1      0      FALSE   
 2 0      0      0      1      0      FALSE   
 3 0      1      0      0      0      FALSE   
 4 0      0      1      0      0      FALSE   
 5 0      0      1      0      0      FALSE   
 6 0      0      0      1      0      FALSE   
 7 0      1      0      0      0      FALSE   
 8 0      0      0      1      0      FALSE   
 9 0      0      1      0      0      TRUE    
10 0      0      0      0      1      TRUE    
# ℹ 192 more rows
…
