hw-03
…
Can we predict the presence or absence of a specific bird species based on habitat type, surrounding environment (like presence of squirrels, cats, humans, etc.), and feeding habits in a given location?

I would that the answer is no. However, I limited the data I was considering and the species. I may have gotten different results if I had chosen other bird species or logical(true /false) variable. But for these 5 species and these 16 variable about the habitat and surrounding area the answer is no.

Comparing Decision Boundaries of Popular Classification Techniques

Classifiers create decision boundaries to discriminate between classes. Different classifiers are able to create different shapes of decision boundaries (e.g., some are strictly linear) and thus some classifiers may perform better for certain datasets. This page visualizes the decision boundaries found by several popular classification methods.

The following plot adds the decision boundary (black lines) and classification confidence (color intensity) by evaluating the classifier at evenly spaced grid points. Note that low resolution (to make evaluation faster) will make the decision boundary look like it has small steps even if it is a (straight) line.

Not Penguins Dataset but I will use Birds

Instead of the penguins dataset I will use the bird species by longitude and latitude as the two dimensions

# A tibble: 151 × 3
   latitude longitude species_code
      <dbl>     <dbl> <fct>       
 1     43.6     -83.9 bkcchi      
 2     41.5     -90.7 bkcchi      
 3     44.7     -86.2 daejun      
 4     44.2     -69.8 blujay      
 5     40.3     -79.8 blujay      
 6     37.7    -122.  daejun      
 7     45.1     -64.6 blujay      
 8     40.4     -75.4 daejun      
 9     44.2     -81.0 daejun      
10     42.8     -89.1 daejun      
# ℹ 141 more rows
…
